2014-12-31,4,natural,cash_out,1200.00,EUR
2015-01-01,4,natural,cash_out,1000.00,EUR
2014-01-05,4,natural,cash_out,1000.00,EUR
2016-01-06,4,legal,cash_out,200.00,EUR
2014-12-31,1,natural,cash_out,30000,JPY
2014-12-31,1,natural,cash_out,1000.00,EUR
2014-12-31,1,natural,cash_out,100.00,USD
2014-12-31,2,legal,cash_in,1000000.00,EUR
2014-12-31,3,natural,cash_out,1000.00,EUR
2014-12-31,1,natural,cash_out,300.00,EUR
2014-12-31,5,natural,cash_out,3000000,JPY